{"count":361,"next":"https://ll.thespacedevs.com/2.0.0/launch/upcoming/?limit=10&offset=10","previous":null,"results":[{"id":"214b4db1-7112-4428-a999-29d2765c8306","url":"https://ll.thespacedevs.com/2.0.0/launch/214b4db1-7112-4428-a999-29d2765c8306/","launch_library_id":null,"slug":"long-march-2d-4-x-satnet-test-satellites-2","name":"Long March 2D | 4 x SatNet test satellites","status":{"id":3,"name":"Success"},"net":"2026-04-24T06:35:00Z","window_end":"2026-04-24T06:46:00Z","window_start":"2026-04-24T06:25:00Z","inhold":false,"tbdtime":false,"tbddate":false,"probability":null,"holdreason":"","failreason":"","hashtag":null,"launch_service_provider":{"id":88,"url":"https://ll.thespacedevs.com/2.0.0/agencies/88/","name":"China Aerospace Science and Technology Corporation","type":"Government"},"rocket":{"id":9009,"configuration":{"id":17,"launch_library_id":73,"url":"https://ll.thespacedevs.com/2.0.0/config/launcher/17/","name":"Long March 2D","family":"Long March","full_name":"Long March 2D","variant":"D"}},"mission":{"id":7604,"launch_library_id":null,"name":"4 x SatNet test satellites","description":"Officially described as \"Satellite-Internet Technology Demonstration Satellites\".\r\n\r\nProbably 4 test satellites for the Chinese state-owned LEO communication satellite constellation SatNet.","launch_designator":null,"type":"Communications","orbit":{"id":8,"name":"Low Earth Orbit","abbrev":"LEO"}},"pad":{"id":66,"url":"https://ll.thespacedevs.com/2.0.0/pad/66/","agency_id":17,"name":"Launch Complex 3 (LC-3/LA-1)","info_url":null,"wiki_url":"https://en.wikipedia.org/wiki/Xichang_Satellite_Launch_Center","map_url":"https://www.google.com/maps?q=28.247059,102.029008","latitude":"28.247059","longitude":"102.029008","location":{"id":16,"url":"https://ll.thespacedevs.com/2.0.0/location/16/","name":"Xichang Satellite Launch Center, People's Republic of China","country_code":"CHN","map_image":"https://thespacedevs-prod.nyc3.digitaloceanspaces.com/media/map_images/location_16_20200803142513.jpg","total_launch_count":239,"total_landing_count":0},"map_image":"https://thespacedevs-prod.nyc3.digitaloceanspaces.com/media/map_images/pad_66_20200803143611.jpg","total_launch_count":107},"webcast_live":false,"image":"https://thespacedevs-prod.nyc3.digitaloceanspaces.com/media/images/long2520march25202d_image_20190222031211.jpeg","infographic":null,"program":[]},{"id":"88ab98d8-44e9-4aae-ac0f-02006a1d7ce6","url":"https://ll.thespacedevs.com/2.0.0/launch/88ab98d8-44e9-4aae-ac0f-02006a1d7ce6/","launch_library_id":null,"slug":"long-march-6-unknown-payload","name":"Long March 6 | Unknown Payload","status":{"id":1,"name":"Go"},"net":"2026-04-25T12:15:00Z","window_end":"2026-04-25T12:37:00Z","window_start":"2026-04-25T12:08:00Z","inhold":false,"tbdtime":true,"tbddate":false,"probability":null,"holdreason":"","failreason":"","hashtag":null,"launch_service_provider":{"id":88,"url":"https://ll.thespacedevs.com/2.0.0/agencies/88/","name":"China Aerospace Science and Technology Corporation","type":"Government"},"rocket":{"id":9010,"configuration":{"id":54,"launch_library_id":72,"url":"https://ll.thespacedevs.com/2.0.0/config/launcher/54/","name":"Long March 6","family":"Long March","full_name":"Long March 6","variant":""}},"mission":{"id":7605,"launch_library_id":null,"name":"Unknown Payload","description":"Details TBD.","launch_designator":null,"type":"Unknown","orbit":{"id":25,"name":"Unknown","abbrev":"N/A"}},"pad":{"id":113,"url":"https://ll.thespacedevs.com/2.0.0/pad/113/","agency_id":null,"name":"Launch Complex 16","info_url":null,"wiki_url":null,"map_url":"https://www.google.com/maps?q=38.868222,111.58024","latitude":"38.868222","longitude":"111.58024","location":{"id":19,"url":"https://ll.thespacedevs.com/2.0.0/location/19/","name":"Taiyuan Satellite Launch Center, People's Republic of China","country_code":"CHN","map_image":"https://thespacedevs-prod.nyc3.digitaloceanspaces.com/media/map_images/location_19_20200803142421.jpg","total_launch_count":153,"total_landing_count":0},"map_image":"https://thespacedevs-prod.nyc3.digitaloceanspaces.com/media/map_images/pad_113_20200803143556.jpg","total_launch_count":15},"webcast_live":false,"image":"https://thespacedevs-prod.nyc3.digitaloceanspaces.com/media/images/long_march_6_image_20210709074933.jpg","infographic":null,"program":[]},{"id":"33eb7522-d371-4195-addb-c22aeff30c41","url":"https://ll.thespacedevs.com/2.0.0/launch/33eb7522-d371-4195-addb-c22aeff30c41/","launch_library_id":null,"slug":"soyuz-21a-progress-ms-34-95p","name":"Soyuz 2.1a | Progress MS-34 (95P)","status":{"id":1,"name":"Go"},"net":"2026-04-25T22:21:47Z","window_end":"2026-04-25T22:21:47Z","window_start":"2026-04-25T22:21:47Z","inhold":false,"tbdtime":false,"tbddate":false,"probability":null,"holdreason":"","failreason":"","hashtag":null,"launch_service_provider":{"id":63,"url":"https://ll.thespacedevs.com/2.0.0/agencies/63/","name":"Russian Federal Space Agency (ROSCOSMOS)","type":"Government"},"rocket":{"id":8859,"configuration":{"id":24,"launch_library_id":49,"url":"https://ll.thespacedevs.com/2.0.0/config/launcher/24/","name":"Soyuz 2.1a","family":"Soyuz","full_name":"Soyuz 2.1a","variant":""}},"mission":{"id":7450,"launch_library_id":null,"name":"Progress MS-34 (95P)","description":"Progress resupply mission to the International Space Station.","launch_designator":null,"type":"Resupply","orbit":{"id":8,"name":"Low Earth Orbit","abbrev":"LEO"}},"pad":{"id":20,"url":"https://ll.thespacedevs.com/2.0.0/pad/20/","agency_id":null,"name":"31/6","info_url":null,"wiki_url":"https://en.wikipedia.org/wiki/Baikonur_Cosmodrome_Site_31","map_url":"https://www.google.com/maps?q=45.996034,63.564003","latitude":"45.996034","longitude":"63.564003","location":{"id":15,"url":"https://ll.thespacedevs.com/2.0.0/location/15/","name":"Baikonur Cosmodrome, Republic of Kazakhstan","country_code":"KAZ","map_image":"https://thespacedevs-prod.nyc3.digitaloceanspaces.com/media/map_images/location_15_20200803142517.jpg","total_launch_count":1561,"total_landing_count":0},"map_image":"https://thespacedevs-prod.nyc3.digitaloceanspaces.com/media/map_images/pad_20_20200803143516.jpg","total_launch_count":427},"webcast_live":false,"image":"https://thespacedevs-prod.nyc3.digitaloceanspaces.com/media/images/soyuz_2.1a_image_20230805184309.jpg","infographic":null,"program":[{"id":17,"url":"https://ll.thespacedevs.com/2.0.0/program/17/","name":"International Space Station","description":"The International Space Station programme is tied together by a complex set of legal, political and financial agreements between the sixteen nations involved in the project, governing ownership of the various components, rights to crewing and utilization, and responsibilities for crew rotation and resupply of the International Space Station. It was conceived in 1984 by President Ronald Reagan, during the Space Station Freedom project as it was originally called.","agencies":[{"id":16,"url":"https://ll.thespacedevs.com/2.0.0/agencies/16/","name":"Canadian Space Agency","type":"Government"},{"id":27,"url":"https://ll.thespacedevs.com/2.0.0/agencies/27/","name":"European Space Agency","type":"Multinational"},{"id":37,"url":"https://ll.thespacedevs.com/2.0.0/agencies/37/","name":"Japan Aerospace Exploration Agency","type":"Government"},{"id":44,"url":"https://ll.thespacedevs.com/2.0.0/agencies/44/","name":"National Aeronautics and Space Administration","type":"Government"},{"id":63,"url":"https://ll.thespacedevs.com/2.0.0/agencies/63/","name":"Russian Federal Space Agency (ROSCOSMOS)","type":"Government"}],"image_url":"https://thespacedevs-prod.nyc3.digitaloceanspaces.com/media/images/international2_program_20201129184745.png","start_date":"1998-11-20T06:40:00Z","end_date":null,"info_url":"https://www.nasa.gov/mission_pages/station/main/index.html","wiki_url":"https://en.wikipedia.org/wiki/International_Space_Station_programme"}]},{"id":"74b3aa8f-dc54-43dd-b8dd-1dc62ccccfc4","url":"https://ll.thespacedevs.com/2.0.0/launch/74b3aa8f-dc54-43dd-b8dd-1dc62ccccfc4/","launch_library_id":null,"slug":"soyuz-5-demo-flight","name":"Soyuz-5 | Demo Flight","status":{"id":2,"name":"TBD"},"net":"2026-04-26T11:00:00Z","window_end":"2026-04-26T13:00:00Z","window_start":"2026-04-26T11:00:00Z","inhold":false,"tbdtime":false,"tbddate":false,"probability":null,"holdreason":"","failreason":"","hashtag":null,"launch_service_provider":{"id":103,"url":"https://ll.thespacedevs.com/2.0.0/agencies/103/","name":"RKK Energiya","type":"Commercial"},"rocket":{"id":8701,"configuration":{"id":521,"launch_library_id":null,"url":"https://ll.thespacedevs.com/2.0.0/config/launcher/521/","name":"Soyuz-5","family":"Soyuz-5","full_name":"Soyuz-5","variant":""}},"mission":{"id":7294,"launch_library_id":null,"name":"Demo Flight","description":"Demonstration Flight for Russia's new Soyuz-5 launch vehicle, with a mass simulator on board. Details TBD.","launch_designator":null,"type":"Test Flight","orbit":{"id":15,"name":"Suborbital","abbrev":"Sub"}},"pad":{"id":2,"url":"https://ll.thespacedevs.com/2.0.0/pad/2/","agency_id":null,"name":"45/1","info_url":null,"wiki_url":"","map_url":"https://www.google.com/maps?q=45.943492,63.653014","latitude":"45.943492","longitude":"63.653014","location":{"id":15,"url":"https://ll.thespacedevs.com/2.0.0/location/15/","name":"Baikonur Cosmodrome, Republic of Kazakhstan","country_code":"KAZ","map_image":"https://thespacedevs-prod.nyc3.digitaloceanspaces.com/media/map_images/location_15_20200803142517.jpg","total_launch_count":1561,"total_landing_count":0},"map_image":"https://thespacedevs-prod.nyc3.digitaloceanspaces.com/media/map_images/pad_2_20200803143256.jpg","total_launch_count":46},"webcast_live":false,"image":"https://thespacedevs-prod.nyc3.digitaloceanspaces.com/media/images/soyuz-5_assembl_image_20260327210910.jpeg","infographic":null,"program":[]},{"id":"d3a6d59f-c38d-4fcd-9f5d-b091aa14afa9","url":"https://ll.thespacedevs.com/2.0.0/launch/d3a6d59f-c38d-4fcd-9f5d-b091aa14afa9/","launch_library_id":null,"slug":"falcon-9-block-5-starlink-group-17-16","name":"Falcon 9 Block 5 | Starlink Group 17-16","status":{"id":1,"name":"Go"},"net":"2026-04-26T14:00:00Z","window_end":"2026-04-26T18:00:00Z","window_start":"2026-04-26T14:00:00Z","inhold":false,"tbdtime":false,"tbddate":false,"probability":null,"holdreason":"","failreason":"","hashtag":null,"launch_service_provider":{"id":121,"url":"https://ll.thespacedevs.com/2.0.0/agencies/121/","name":"SpaceX","type":"Commercial"},"rocket":{"id":9005,"configuration":{"id":164,"launch_library_id":188,"url":"https://ll.thespacedevs.com/2.0.0/config/launcher/164/","name":"Falcon 9","family":"Falcon","full_name":"Falcon 9 Block 5","variant":"Block 5"}},"mission":{"id":7600,"launch_library_id":null,"name":"Starlink Group 17-16","description":"A batch of 25 satellites for the Starlink mega-constellation - SpaceX's project for space-based Internet communication system.","launch_designator":null,"type":"Communications","orbit":{"id":8,"name":"Low Earth Orbit","abbrev":"LEO"}},"pad":{"id":16,"url":"https://ll.thespacedevs.com/2.0.0/pad/16/","agency_id":null,"name":"Space Launch Complex 4E","info_url":null,"wiki_url":"https://en.wikipedia.org/wiki/Vandenberg_Space_Launch_Complex_4#SLC-4E","map_url":"https://www.google.com/maps?q=34.632,-120.611","latitude":"34.632","longitude":"-120.611","location":{"id":11,"url":"https://ll.thespacedevs.com/2.0.0/location/11/","name":"Vandenberg SFB, CA, USA","country_code":"USA","map_image":"https://thespacedevs-prod.nyc3.digitaloceanspaces.com/media/map_images/location_11_20200803142416.jpg","total_launch_count":878,"total_landing_count":33},"map_image":"https://thespacedevs-prod.nyc3.digitaloceanspaces.com/media/map_images/pad_16_20200803143532.jpg","total_launch_count":262},"webcast_live":false,"image":"https://thespacedevs-prod.nyc3.digitaloceanspaces.com/media/images/falcon2520925_image_20221009234147.png","infographic":null,"program":[{"id":25,"url":"https://ll.thespacedevs.com/2.0.0/program/25/","name":"Starlink","description":"Starlink is a satellite internet constellation operated by American aerospace company SpaceX","agencies":[{"id":121,"url":"https://ll.thespacedevs.com/2.0.0/agencies/121/","name":"SpaceX","type":"Commercial"}],"image_url":"https://thespacedevs-prod.nyc3.digitaloceanspaces.com/media/images/starlink_program_20231228154508.jpeg","start_date":"2018-02-22T14:17:00Z","end_date":null,"info_url":"https://starlink.com","wiki_url":"https://en.wikipedia.org/wiki/Starlink"}]},{"id":"4cc237b2-c61a-491e-9532-466cce81f524","url":"https://ll.thespacedevs.com/2.0.0/launch/4cc237b2-c61a-491e-9532-466cce81f524/","launch_library_id":1191,"slug":"falcon-heavy-viasat-3-f3-viasat-3-asia-pacific","name":"Falcon Heavy | ViaSat-3 F3 (ViaSat-3 Asia-Pacific)","status":{"id":1,"name":"Go"},"net":"2026-04-27T14:21:00Z","window_end":"2026-04-27T15:46:00Z","window_start":"2026-04-27T14:21:00Z","inhold":false,"tbdtime":false,"tbddate":false,"probability":null,"holdreason":"","failreason":"","hashtag":null,"launch_service_provider":{"id":121,"url":"https://ll.thespacedevs.com/2.0.0/agencies/121/","name":"SpaceX","type":"Commercial"},"rocket":{"id":2489,"configuration":{"id":161,"launch_library_id":58,"url":"https://ll.thespacedevs.com/2.0.0/config/launcher/161/","name":"Falcon Heavy","family":"Falcon","full_name":"Falcon Heavy","variant":"Heavy"}},"mission":{"id":6218,"launch_library_id":null,"name":"ViaSat-3 F3 (ViaSat-3 Asia-Pacific)","description":"The ViaSat-3 is a series of three Ka-band satellites is expected to provide vastly superior capabilities in terms of service speed and flexibility for a satellite platform. Each ViaSat-3 class satellite is expected to deliver more than 1-Terabit per second of network capacity, and to leverage high levels of flexibility to dynamically direct capacity to where customers are located.","launch_designator":null,"type":"Communications","orbit":{"id":2,"name":"Geostationary Transfer Orbit","abbrev":"GTO"}},"pad":{"id":87,"url":"https://ll.thespacedevs.com/2.0.0/pad/87/","agency_id":121,"name":"Launch Complex 39A","info_url":null,"wiki_url":"https://en.wikipedia.org/wiki/Kennedy_Space_Center_Launch_Complex_39#Launch_Pad_39A","map_url":"https://www.google.com/maps?q=28.60822681,-80.60428186","latitude":"28.60822681","longitude":"-80.60428186","location":{"id":27,"url":"https://ll.thespacedevs.com/2.0.0/location/27/","name":"Kennedy Space Center, FL, USA","country_code":"USA","map_image":"https://thespacedevs-prod.nyc3.digitaloceanspaces.com/media/map_images/location_27_20200803142447.jpg","total_launch_count":280,"total_landing_count":0},"map_image":"https://thespacedevs-prod.nyc3.digitaloceanspaces.com/media/map_images/pad_87_20200803143537.jpg","total_launch_count":221},"webcast_live":false,"image":"https://thespacedevs-prod.nyc3.digitaloceanspaces.com/media/images/falcon_heavy_image_20220129192819.jpeg","infographic":null,"program":[]},{"id":"7e89e423-6f47-40a0-b075-c6fc1d9cf228","url":"https://ll.thespacedevs.com/2.0.0/launch/7e89e423-6f47-40a0-b075-c6fc1d9cf228/","launch_library_id":null,"slug":"atlas-v-551-amazon-leo-la-06","name":"Atlas V 551 | Amazon Leo (LA-06)","status":{"id":1,"name":"Go"},"net":"2026-04-28T00:52:00Z","window_end":"2026-04-28T01:21:00Z","window_start":"2026-04-28T00:52:00Z","inhold":false,"tbdtime":false,"tbddate":false,"probability":75,"holdreason":"","failreason":"","hashtag":null,"launch_service_provider":{"id":124,"url":"https://ll.thespacedevs.com/2.0.0/agencies/124/","name":"United Launch Alliance","type":"Commercial"},"rocket":{"id":178,"configuration":{"id":27,"launch_library_id":37,"url":"https://ll.thespacedevs.com/2.0.0/config/launcher/27/","name":"Atlas V 551","family":"Atlas","full_name":"Atlas V 551","variant":"551"}},"mission":{"id":5998,"launch_library_id":null,"name":"Amazon Leo (LA-06)","description":"Amazon Leo, formerly known as Project Kuiper, is a mega constellation of satellites in Low Earth Orbit that will offer broadband internet access, this constellation will be managed by Kuiper Systems LLC, a subsidiary of Amazon. This constellation is planned to be composed of 3,276 satellites. The satellites are projected to be placed in 98 orbital planes in three orbital layers, one at 590 km, 610 km and 630 km altitude.\r\n\r\n29 satellites are carried on this launch.","launch_designator":null,"type":"Communications","orbit":{"id":8,"name":"Low Earth Orbit","abbrev":"LEO"}},"pad":{"id":29,"url":"https://ll.thespacedevs.com/2.0.0/pad/29/","agency_id":null,"name":"Space Launch Complex 41","info_url":null,"wiki_url":"https://en.wikipedia.org/wiki/Cape_Canaveral_Air_Force_Station_Space_Launch_Complex_41","map_url":"https://www.google.com/maps?q=28.58341025,-80.58303644","latitude":"28.58341025","longitude":"-80.58303644","location":{"id":12,"url":"https://ll.thespacedevs.com/2.0.0/location/12/","name":"Cape Canaveral SFS, FL, USA","country_code":"USA","map_image":"https://thespacedevs-prod.nyc3.digitaloceanspaces.com/media/map_images/location_12_20200803142519.jpg","total_launch_count":1104,"total_landing_count":72},"map_image":"https://thespacedevs-prod.nyc3.digitaloceanspaces.com/media/map_images/pad_29_20200803143528.jpg","total_launch_count":122},"webcast_live":false,"image":"https://thespacedevs-prod.nyc3.digitaloceanspaces.com/media/images/atlas2520v2520551_image_20190224012316.jpeg","infographic":null,"program":[{"id":27,"url":"https://ll.thespacedevs.com/2.0.0/program/27/","name":"Amazon Leo","description":"Amazon Leo is a satellite internet constellation aimed at providing high-speed, low-latency broadband connectivity to underserved and remote areas globally. The project involves deploying a constellation of low Earth orbit (LEO) satellites to create a satellite internet network capable of delivering reliable internet access.","agencies":[{"id":1058,"url":"https://ll.thespacedevs.com/2.0.0/agencies/1058/","name":"Amazon Leo","type":"Private"}],"image_url":"https://thespacedevs-prod.nyc3.digitaloceanspaces.com/media/images/project2520kui_program_20231228165031.jpeg","start_date":"2023-10-16T18:06:00Z","end_date":null,"info_url":"https://en.wikipedia.org/wiki/Kuiper_Systems","wiki_url":"https://aboutamazon.com/what-we-do/devices-services/project-kuiper"}]},{"id":"7bffe283-a708-427d-ba0d-43ea741453b1","url":"https://ll.thespacedevs.com/2.0.0/launch/7bffe283-a708-427d-ba0d-43ea741453b1/","launch_library_id":null,"slug":"ariane-64-amazon-leo-le-02","name":"Ariane 64 | Amazon Leo (LE-02)","status":{"id":1,"name":"Go"},"net":"2026-04-28T08:51:00Z","window_end":"2026-04-28T09:39:00Z","window_start":"2026-04-28T08:51:00Z","inhold":false,"tbdtime":false,"tbddate":false,"probability":null,"holdreason":"","failreason":"","hashtag":"VA268","launch_service_provider":{"id":115,"url":"https://ll.thespacedevs.com/2.0.0/agencies/115/","name":"Arianespace","type":"Commercial"},"rocket":{"id":8463,"configuration":{"id":116,"launch_library_id":165,"url":"https://ll.thespacedevs.com/2.0.0/config/launcher/116/","name":"Ariane 64","family":"Ariane","full_name":"Ariane 64","variant":"64"}},"mission":{"id":7052,"launch_library_id":null,"name":"Amazon Leo (LE-02)","description":"Amazon Leo, formerly known as Project Kuiper, is a mega constellation of satellites in Low Earth Orbit that will offer broadband internet access, this constellation will be managed by Kuiper Systems LLC, a subsidiary of Amazon. This constellation is planned to be composed of 3,276 satellites. The satellites are projected to be placed in 98 orbital planes in three orbital layers, one at 590 km, 610 km and 630 km altitude.\r\n\r\n32 satellites are carried on this launch.","launch_designator":null,"type":"Communications","orbit":{"id":8,"name":"Low Earth Orbit","abbrev":"LEO"}},"pad":{"id":67,"url":"https://ll.thespacedevs.com/2.0.0/pad/67/","agency_id":115,"name":"Ariane Launch Area 4","info_url":null,"wiki_url":"https://en.wikipedia.org/wiki/Guiana_Space_Centre","map_url":"https://www.google.com/maps?q=5.256319,-52.786838","latitude":"5.256319","longitude":"-52.786838","location":{"id":13,"url":"https://ll.thespacedevs.com/2.0.0/location/13/","name":"Guiana Space Centre, French Guiana","country_code":"GUF","map_image":"https://thespacedevs-prod.nyc3.digitaloceanspaces.com/media/map_images/location_13_20200803142412.jpg","total_launch_count":331,"total_landing_count":0},"map_image":"https://thespacedevs-prod.nyc3.digitaloceanspaces.com/media/map_images/pad_67_20200803143559.jpg","total_launch_count":6},"webcast_live":false,"image":"https://thespacedevs-prod.nyc3.digitaloceanspaces.com/media/images/ariane_64_lifto_image_20260213070745.jpg","infographic":null,"program":[{"id":27,"url":"https://ll.thespacedevs.com/2.0.0/program/27/","name":"Amazon Leo","description":"Amazon Leo is a satellite internet constellation aimed at providing high-speed, low-latency broadband connectivity to underserved and remote areas globally. The project involves deploying a constellation of low Earth orbit (LEO) satellites to create a satellite internet network capable of delivering reliable internet access.","agencies":[{"id":1058,"url":"https://ll.thespacedevs.com/2.0.0/agencies/1058/","name":"Amazon Leo","type":"Private"}],"image_url":"https://thespacedevs-prod.nyc3.digitaloceanspaces.com/media/images/project2520kui_program_20231228165031.jpeg","start_date":"2023-10-16T18:06:00Z","end_date":null,"info_url":"https://en.wikipedia.org/wiki/Kuiper_Systems","wiki_url":"https://aboutamazon.com/what-we-do/devices-services/project-kuiper"}]},{"id":"1e79a5e9-c02c-470f-882f-884120100fef","url":"https://ll.thespacedevs.com/2.0.0/launch/1e79a5e9-c02c-470f-882f-884120100fef/","launch_library_id":null,"slug":"long-march-10b-demo-flight","name":"Long March 10B | Demo Flight","status":{"id":2,"name":"TBD"},"net":"2026-04-30T00:00:00Z","window_end":"2026-04-30T00:00:00Z","window_start":"2026-04-30T00:00:00Z","inhold":false,"tbdtime":true,"tbddate":true,"probability":null,"holdreason":"","failreason":"","hashtag":null,"launch_service_provider":{"id":88,"url":"https://ll.thespacedevs.com/2.0.0/agencies/88/","name":"China Aerospace Science and Technology Corporation","type":"Government"},"rocket":{"id":8938,"configuration":{"id":554,"launch_library_id":null,"url":"https://ll.thespacedevs.com/2.0.0/config/launcher/554/","name":"Long March 10B","family":"Long March","full_name":"Long March 10B","variant":""}},"mission":{"id":7533,"launch_library_id":null,"name":"Demo Flight","description":"First test launch of CASC’s Long March 10B rocket.","launch_designator":null,"type":"Test Flight","orbit":{"id":25,"name":"Unknown","abbrev":"N/A"}},"pad":{"id":219,"url":"https://ll.thespacedevs.com/2.0.0/pad/219/","agency_id":null,"name":"Commercial LC-2","info_url":null,"wiki_url":"https://en.wikipedia.org/wiki/Wenchang_Commercial_Space_Launch_Site","map_url":"https://www.google.com/maps?q=19.59755,110.936481","latitude":"19.59755","longitude":"110.936481","location":{"id":8,"url":"https://ll.thespacedevs.com/2.0.0/location/8/","name":"Wenchang Space Launch Site, People's Republic of China","country_code":"CHN","map_image":"https://thespacedevs-prod.nyc3.digitaloceanspaces.com/media/map_images/location_8_20200803142445.jpg","total_launch_count":59,"total_landing_count":0},"map_image":"https://thespacedevs-prod.nyc3.digitaloceanspaces.com/media/map_images/pad_commercial_lc-2_20231225074048.jpg","total_launch_count":5},"webcast_live":false,"image":null,"infographic":null,"program":[]},{"id":"4aa02420-1bcb-4dd9-afa8-06d5ff89d248","url":"https://ll.thespacedevs.com/2.0.0/launch/4aa02420-1bcb-4dd9-afa8-06d5ff89d248/","launch_library_id":null,"slug":"zhuque-2e-unknown-payload","name":"Zhuque-2E | Unknown Payload","status":{"id":2,"name":"TBD"},"net":"2026-04-30T00:00:00Z","window_end":"2026-04-30T00:00:00Z","window_start":"2026-04-30T00:00:00Z","inhold":false,"tbdtime":true,"tbddate":true,"probability":null,"holdreason":"","failreason":"","hashtag":null,"launch_service_provider":{"id":259,"url":"https://ll.thespacedevs.com/2.0.0/agencies/259/","name":"LandSpace","type":"Commercial"},"rocket":{"id":8944,"configuration":{"id":519,"launch_library_id":null,"url":"https://ll.thespacedevs.com/2.0.0/config/launcher/519/","name":"Zhuque-2E","family":"Zhuque","full_name":"Zhuque-2E","variant":"2E"}},"mission":{"id":7539,"launch_library_id":null,"name":"Unknown Payload","description":"Details TBD.","launch_designator":null,"type":"Unknown","orbit":{"id":25,"name":"Unknown","abbrev":"N/A"}},"pad":{"id":9,"url":"https://ll.thespacedevs.com/2.0.0/pad/9/","agency_id":259,"name":"Launch Area 96A","info_url":null,"wiki_url":"https://en.wikipedia.org/wiki/LandSpace","map_url":"https://www.google.com/maps?q=40.91491,100.245488","latitude":"40.91491","longitude":"100.245488","location":{"id":17,"url":"https://ll.thespacedevs.com/2.0.0/location/17/","name":"Jiuquan Satellite Launch Center, People's Republic of China","country_code":"CHN","map_image":"https://thespacedevs-prod.nyc3.digitaloceanspaces.com/media/map_images/location_17_20200803142429.jpg","total_launch_count":283,"total_landing_count":2},"map_image":"https://thespacedevs-prod.nyc3.digitaloceanspaces.com/media/map_images/pad_9_20200803143341.jpg","total_launch_count":6},"webcast_live":false,"image":"https://thespacedevs-prod.nyc3.digitaloceanspaces.com/media/images/zhunque_2e_on_t_image_20241216101643.jpg","infographic":null,"program":[]}]}